…
\#6 and Bonus. Distances from Auburn to cities

``` r
distances_km <- NULL #creates a null object so tidyverse will work
AUDistance <- Cities2 %>%
  group_by(city) %>% #grouping by city
  nest() %>% #nesting the data
  mutate(distances_km= map(data, ~Haversine(.$lat,.$long,.$lat2,.$lon2))) %>% #creates a new column after mapping the data and doing the haversine function
  unnest(c(data,distances_km)) %>% #unnests data and distances
  ungroup(city) %>% #ungroups city so we can use the select function
  dplyr::select(city1, city2, distances_km) #selects three columns we want in the resulting dataframe (removes excess garbage)
 AUDistance
```

    ## # A tibble: 40 × 3
    ##    city1        city2  distances_km
    ##    <chr>        <chr>         <dbl>
    ##  1 New York     Auburn        1368.
    ##  2 Los Angeles  Auburn        3052.
    ##  3 Chicago      Auburn        1046.
    ##  4 Miami        Auburn         916.
    ##  5 Houston      Auburn         993.
    ##  6 Dallas       Auburn        1056.
    ##  7 Philadelphia Auburn        1240.
    ##  8 Atlanta      Auburn         163.
    ##  9 Washington   Auburn        1037.
    ## 10 Boston       Auburn        1666.
    ## # ℹ 30 more rows
